Division,WeightClassKg,Place,Name,Team,BodyweightKg,Best3SquatKg,Best3BenchKg,Best3DeadliftKg,TotalKg,Equipment,Event,Sex
Boys,51.71,1,Michael Ramsey,Memphis,50.89,142.88,68.04,165.56,376.48,Single-ply,SBD,M
Boys,51.71,2,Matthiew Cordova,Amarillo Highland Park,50.98,113.4,81.65,122.47,317.51,Single-ply,SBD,M
Boys,51.71,3,Ryan Shemwell,Panhandle,51.71,120.2,70.31,115.67,306.17,Single-ply,SBD,M
Boys,51.71,4,Jason Davis,Dumas,51.71,92.99,49.9,115.67,258.55,Single-ply,SBD,M
Boys,51.71,5,Hector Bustillos,Sunray,49.35,92.99,47.63,115.67,256.28,Single-ply,SBD,M
Boys,55.79,6,Owen Norris,Bushland,51.94,79.38,65.77,102.06,247.21,Single-ply,SBD,M
Boys,51.71,7,Dang Nguyen,Amarillo Highland Park,43.73,83.91,43.09,97.52,224.53,Single-ply,SBD,M
Boys,59.87,1,Julian Gaspar,Sunray,56.02,154.22,74.84,161.03,390.09,Single-ply,SBD,M
Boys,55.79,2,Carlos Bravo,Olton,52.07,131.54,86.18,140.61,358.34,Single-ply,SBD,M
Boys,55.79,3,Angel Samarron,Lazbuddie,55.61,136.08,72.57,142.88,351.53,Single-ply,SBD,M
Boys,55.79,4,Dominque Pham,Amarillo Highland Park,55.34,129.27,72.57,136.08,337.93,Single-ply,SBD,M
Boys,55.79,5,Erli Rueda,Bovina,53.89,111.13,56.7,136.08,303.91,Single-ply,SBD,M
Boys,55.79,6,Pierre Valencia,Dalhart,55.79,111.13,61.23,124.74,297.1,Single-ply,SBD,M
Boys,55.79,7,Eddie Fierro,Sunray,52.98,113.4,56.7,124.74,294.84,Single-ply,SBD,M
Boys,55.79,8,Luis Anchondo,Friona,55.7,108.86,54.43,122.47,285.76,Single-ply,SBD,M
Boys,55.79,9,Payton Riddell,Bushland,55.07,106.59,68.04,108.86,283.5,Single-ply,SBD,M
Boys,55.79,10,Isasis Garcia,Memphis,52.07,90.72,61.23,108.86,260.82,Single-ply,SBD,M
Boys,59.87,1,Corey Barker,Clarendon,59.87,151.95,106.59,165.56,424.11,Single-ply,SBD,M
Boys,59.87,2,Anthony Pando,Tulia,59.87,136.08,72.57,161.03,369.68,Single-ply,SBD,M
Boys,59.87,3,Trent Morgan,Amarillo Highland Park,59.87,131.54,86.18,149.69,367.41,Single-ply,SBD,M
Boys,59.87,4,Nic Cruz,Tulia,59.33,104.33,92.99,147.42,344.73,Single-ply,SBD,M
Boys,59.87,5,Esdras Rodriguez,Friona,59.78,129.27,68.04,147.42,344.73,Single-ply,SBD,M
Boys,59.87,6,Joey Rios,Dumas,58.88,136.08,61.23,131.54,328.85,Single-ply,SBD,M
Boys,59.87,7,Juan Pinela,Bovina,58.97,127.01,68.04,127.01,322.05,Single-ply,SBD,M
Boys,59.87,8,Jason Dowd,Amarillo Highland Park,59.24,97.52,74.84,136.08,308.44,Single-ply,SBD,M
Boys,59.87,9,Adam Munoz,Vega,59.87,108.86,77.11,120.2,306.17,Single-ply,SBD,M
Boys,59.87,10,Austin Prescott,Bushland,57.52,102.06,58.97,136.08,297.1,Single-ply,SBD,M
Boys,59.87,11,Rene Cantu,Memphis,59.42,92.99,52.16,142.88,288.03,Single-ply,SBD,M
Boys,59.87,DQ,Fabian Bencomo,Dalhart,58.06,,,,,Single-ply,SBD,M
Boys,67.13,1,Emilio Sandoval,Olton,66.04,165.56,86.18,190.51,442.25,Single-ply,SBD,M
Boys,67.13,2,Hunter Tollison,Borger,66.32,154.22,99.79,185.97,439.98,Single-ply,SBD,M
Boys,67.13,3,Dominic Baca,Dalhart,63.5,158.76,97.52,181.44,437.72,Single-ply,SBD,M
Boys,67.13,4,Joseph Tran,Amarillo Highland Park,65.41,170.1,81.65,170.1,421.84,Single-ply,SBD,M
Boys,67.13,5,Frankie Medina,Dalhart,66.77,158.76,90.72,165.56,415.04,Single-ply,SBD,M
Boys,67.13,6,Julian Nevarez,Dumas,62.23,140.61,90.72,170.1,401.43,Single-ply,SBD,M
Boys,67.13,7,Ryan Bybee,Dumas,63.14,149.69,83.91,161.03,394.63,Single-ply,SBD,M
Boys,67.13,8,Jacob Garza,Olton,64.05,124.74,92.99,163.29,381.02,Single-ply,SBD,M
Boys,67.13,9,Payson Bain,Vega,67.13,136.08,95.25,142.88,374.21,Single-ply,SBD,M
Boys,67.13,10,Juan Perez #15,Sunray,63.68,129.27,90.72,142.88,362.87,Single-ply,SBD,M
Boys,67.13,11,Garrett Ely,Sunray,65.32,117.93,81.65,136.08,335.66,Single-ply,SBD,M
Boys,67.13,12,Aldo Ramirez,Perryton,66.41,136.08,72.57,127.01,335.66,Single-ply,SBD,M
Boys,67.13,13,Isaias Mendoza,Sunray,67.13,117.93,70.31,136.08,324.32,Single-ply,SBD,M
Boys,67.13,14,Frankie Benitez,Memphis,67.13,102.06,65.77,129.27,297.1,Single-ply,SBD,M
Boys,67.13,15,Jose Gonzales,Sunray,61.51,117.93,52.16,124.74,294.84,Single-ply,SBD,M
Boys,67.13,DQ,Broc Harris,Tulia,66.04,170.1,86.18,,,Single-ply,SBD,M
Boys,74.84,1,Michael Garcia #9,Friona,74.12,174.63,111.13,185.97,471.74,Single-ply,SBD,M
Boys,74.84,2,Phon Nguyen,Amarillo Highland Park,74.84,172.37,88.45,190.51,451.32,Single-ply,SBD,M
Boys,74.84,3,Zach Admire,Dumas,69.22,158.76,90.72,181.44,430.91,Single-ply,SBD,M
Boys,74.84,4,Guillermo Davila,Dalhart,69.94,181.44,86.18,158.76,426.38,Single-ply,SBD,M
Boys,74.84,5,Dallas Cox,Lazbuddie,72.03,149.69,81.65,185.97,417.3,Single-ply,SBD,M
Boys,74.84,6,Jesus Romero,Dumas,71.94,147.42,92.99,174.63,415.04,Single-ply,SBD,M
Boys,74.84,7,Cesar Huerta,Friona,72.39,145.15,72.57,170.1,387.82,Single-ply,SBD,M
Boys,74.84,8,Antonio Adame,Friona,68.67,149.69,77.11,154.22,381.02,Single-ply,SBD,M
Boys,74.84,9,Travis Sullivan,Sunray,73.75,149.69,81.65,142.88,374.21,Single-ply,SBD,M
Boys,74.84,10,Samuel Carrillo,Memphis,74.84,127.01,90.72,129.27,347,Single-ply,SBD,M
Boys,74.84,11,Trevor Sustaita,Dalhart,70.31,124.74,74.84,142.88,342.46,Single-ply,SBD,M
Boys,74.84,12,Dominique de la Rosa #1,Sunray,74.39,124.74,74.84,136.08,335.66,Single-ply,SBD,M
Boys,74.84,13,Julio Loya,Sunray,70.58,102.06,63.5,124.74,290.3,Single-ply,SBD,M
Boys,74.84,14,Kordell McCullom,Dalhart,68.04,108.86,56.7,102.06,267.62,Single-ply,SBD,M
Boys,74.84,15,Jesus Mata,Dumas,72.48,83.91,56.7,83.91,224.53,Single-ply,SBD,M
Boys,74.84,DQ,Edward Pena,Dumas,67.59,,,,,Single-ply,SBD,M
Boys,82.1,1,Mario Flores,Memphis,79.74,181.44,102.06,215.46,498.95,Single-ply,SBD,M
Boys,82.1,2,Skeets Mandrell,Olton,80.83,183.7,106.59,208.65,498.95,Single-ply,SBD,M
Boys,82.1,3,Brandon Jackson,Tulia,79.11,190.51,106.59,192.78,489.88,Single-ply,SBD,M
Boys,82.1,4,Abdiel Ramos,Bovina,82.1,176.9,108.86,204.12,489.88,Single-ply,SBD,M
Boys,82.1,5,Nathan Ruiz,Dumas,81.19,183.7,113.4,170.1,467.2,Single-ply,SBD,M
Boys,82.1,6,Edgar Martinez #2,Memphis,78.74,172.37,104.33,174.63,451.32,Single-ply,SBD,M
Boys,82.1,7,Alexis Mendoza,Sunray,79.92,174.63,97.52,176.9,449.06,Single-ply,SBD,M
Boys,82.1,8,Jared Golden,Borger,79.11,183.7,86.18,176.9,446.79,Single-ply,SBD,M
Boys,82.1,9,Abel Palacios,Friona,81.1,163.29,90.72,174.63,428.64,Single-ply,SBD,M
Boys,82.1,10,David Whitaker,Amarillo Highland Park,77.38,145.15,97.52,181.44,424.11,Single-ply,SBD,M
Boys,82.1,11,Kevin Olvera,Perryton,79.83,181.44,86.18,149.69,417.3,Single-ply,SBD,M
Boys,82.1,12,Tucker Crowley,Sunray,78.11,158.76,79.38,158.76,396.89,Single-ply,SBD,M
Boys,82.1,13,Jorge Arroyo,Sunray,78.65,154.22,83.91,154.22,392.36,Single-ply,SBD,M
Boys,82.1,14,Kevin Flores,Sunray,81.74,145.15,86.18,138.35,369.68,Single-ply,SBD,M
Boys,82.1,15,Cory Throgmorton,Panhandle,80.01,120.2,90.72,151.95,362.87,Single-ply,SBD,M
Boys,82.1,16,James Hill,Tulia,79.65,133.81,72.57,145.15,351.53,Single-ply,SBD,M
Boys,82.1,17,Mason Wester,Bushland,80.1,127.01,79.38,145.15,351.53,Single-ply,SBD,M
Boys,82.1,18,Manuel Grado,Friona,75.39,131.54,81.65,136.08,349.27,Single-ply,SBD,M
Boys,82.1,19,Cory Free,Panhandle,79.92,120.2,88.45,136.08,344.73,Single-ply,SBD,M
Boys,82.1,20,Cody Duran,Memphis,78.93,120.2,83.91,127.01,331.12,Single-ply,SBD,M
Boys,82.1,21,Jason Durham,Panhandle,80.1,111.13,72.57,136.08,319.78,Single-ply,SBD,M
Boys,82.1,22,Jacob Franklin,Memphis,78.38,90.72,68.04,154.22,312.98,Single-ply,SBD,M
Boys,82.1,23,Estevan Rocha,Friona,79.2,122.47,65.77,120.2,308.44,Single-ply,SBD,M
Boys,89.81,1,Juan Chavira,Dalhart,89.81,192.78,115.67,224.53,532.97,Single-ply,SBD,M
Boys,89.81,2,Dylan Ewing,Stinnett West Texas,88,197.31,113.4,215.46,526.17,Single-ply,SBD,M
Boys,89.81,3,Tommy Inithrah,Dumas,83.28,199.58,113.4,188.24,501.22,Single-ply,SBD,M
Boys,89.81,4,Anthony Ortiz,Bovina,83.1,176.9,113.4,176.9,467.2,Single-ply,SBD,M
Boys,89.81,5,Mason Cook,Vega,89.81,158.76,133.81,170.1,462.66,Single-ply,SBD,M
Boys,89.81,6,Gera Urquidiz,Sunray,87.54,174.63,97.52,185.97,458.13,Single-ply,SBD,M
Boys,89.81,7,Daniel Soltero,Friona,82.37,163.29,102.06,174.63,439.98,Single-ply,SBD,M
Boys,89.81,8,Adrian Prieto,Friona,85.55,161.03,99.79,165.56,426.38,Single-ply,SBD,M
Boys,89.81,9,Carlos Coronado,Dalhart,83.91,149.69,90.72,181.44,421.84,Single-ply,SBD,M
Boys,89.81,10,Joe Lopez,Dalhart,89.81,136.08,79.38,165.56,381.02,Single-ply,SBD,M
Boys,89.81,11,Adam Jones #6,Panhandle,84.46,133.81,81.65,158.76,374.21,Single-ply,SBD,M
Boys,89.81,12,Cesar Calderon,Sunray,85.09,147.42,83.91,136.08,367.41,Single-ply,SBD,M
Boys,89.81,13,Luis Balderrama,Vega,88.36,115.67,90.72,147.42,353.8,Single-ply,SBD,M
Boys,89.81,14,Rance Hargrove,Vega,84.73,117.93,61.23,136.08,315.25,Single-ply,SBD,M
Boys,99.79,1,Brett Cummings,Borger,99.16,272.16,127.01,235.87,635.03,Single-ply,SBD,M
Boys,99.79,2,Octavious Ledbetter,Memphis,97.7,219.99,117.93,206.38,544.31,Single-ply,SBD,M
Boys,99.79,3,Cameron Patterson,Dumas,99.61,210.92,115.67,217.72,544.31,Single-ply,SBD,M
Boys,99.79,4,Cameron Cave,Amarillo Highland Park,98.97,183.7,115.67,199.58,498.95,Single-ply,SBD,M
Boys,99.79,5,Josh Hull,Sunray,95.62,183.7,131.54,176.9,492.15,Single-ply,SBD,M
Boys,99.79,6,Marcus Trujillo,Dalhart,99.79,192.78,102.06,179.17,474,Single-ply,SBD,M
Boys,99.79,7,Max Zapata,Sunray,93.26,185.97,79.38,190.51,455.86,Single-ply,SBD,M
Boys,99.79,8,David Ramierz,Dumas,94.35,158.76,102.06,167.83,428.64,Single-ply,SBD,M
Boys,99.79,9,Jaime Borunda,Sunray,99.43,172.37,81.65,165.56,419.57,Single-ply,SBD,M
Boys,99.79,10,Jason Demsky,Dumas,96.62,163.29,72.57,154.22,390.09,Single-ply,SBD,M
Boys,99.79,11,Rudy Giron,Dumas,98.88,111.13,63.5,149.69,324.32,Single-ply,SBD,M
Boys,109.77,1,Spencer Holsey,Borger,108.14,181.44,106.59,215.46,503.49,Single-ply,SBD,M
Boys,109.77,2,Esai Sandoval,Olton,102.69,185.97,115.67,181.44,483.08,Single-ply,SBD,M
Boys,109.77,3,Mark Munoz,Memphis,100.97,163.29,115.67,192.78,471.74,Single-ply,SBD,M
Boys,109.77,4,Evan Putman,White Deer,108.77,165.56,117.93,183.7,467.2,Single-ply,SBD,M
Boys,109.77,5,Adrian Chacon,Sunray,103.6,170.1,92.99,181.44,444.52,Single-ply,SBD,M
Boys,109.77,6,Angel Vera,Dumas,104.42,165.56,113.4,154.22,433.18,Single-ply,SBD,M
Boys,109.77,7,Manuel Muñoz,Olton,103.78,181.44,81.65,167.83,430.91,Single-ply,SBD,M
Boys,109.77,8,Sergio Orozco,Dalhart,104.33,165.56,90.72,158.76,415.04,Single-ply,SBD,M
Boys,109.77,9,Dutch White,Vega,109.32,136.08,117.93,136.08,390.09,Single-ply,SBD,M
Boys,109.77,10,David Veale,Bushland,107.5,138.35,99.79,142.88,381.02,Single-ply,SBD,M
Boys,109.77,11,Dallyn Clements,Panhandle,101.97,113.4,74.84,142.88,331.12,Single-ply,SBD,M
Boys,109.77,12,Hunter Pool,Panhandle,107.68,113.4,63.5,124.74,301.64,Single-ply,SBD,M
Boys,109.77,13,Dustin Barker,Stinnett West Texas,103.24,113.4,68.04,92.99,274.42,Single-ply,SBD,M
Boys,109.77,14,Danny Ray,Vega,106.14,74.84,81.65,113.4,269.89,Single-ply,SBD,M
Boys,124.74,1,O'Scotty Castro,Dalhart,117.3,294.84,149.69,238.14,682.66,Single-ply,SBD,M
Boys,124.74,2,Cristian Murga,Dumas,123.1,204.12,127.01,240.4,571.53,Single-ply,SBD,M
Boys,124.74,3,Jason Olvera,Bovina,121.65,226.8,106.59,174.63,508.02,Single-ply,SBD,M
Boys,124.74,4,Steve Scott,Vega,114.94,176.9,95.25,181.44,453.59,Single-ply,SBD,M
Boys,124.74,5,Edwin Carrillo,Bovina,120.66,176.9,106.59,156.49,439.98,Single-ply,SBD,M
Boys,124.74,6,Michael Hiller,Bushland,112.04,156.49,102.06,149.69,408.23,Single-ply,SBD,M
Boys,124.74,7,Alex Chavez,Perryton,116.48,158.76,79.38,149.69,387.82,Single-ply,SBD,M
Boys,124.74,8,Mitchell Funk,Dumas,116.03,140.61,72.57,136.08,349.27,Single-ply,SBD,M
Boys,124.74,9,Tucker Wise,Panhandle,117.75,92.99,56.7,136.08,285.76,Single-ply,SBD,M
Boys,124.74,DQ,Tyler Wise,Panhandle,123.83,213.19,122.47,,,Single-ply,SBD,M
Boys,124.74+,1,Dallam Read,Dalhart,125.28,238.14,142.88,254.01,635.03,Single-ply,SBD,M
Boys,124.74+,2,Edgar Guerrero,Friona,128.64,238.14,138.35,240.4,616.89,Single-ply,SBD,M
Boys,124.74+,3,Daniel Meza,Friona,167.83,247.21,145.15,204.12,596.47,Single-ply,SBD,M
Boys,124.74+,4,Jobe Allen,Stinnett West Texas,133.81,226.8,124.74,188.24,539.77,Single-ply,SBD,M
Boys,124.74+,5,Carlos García,Sunray,125.15,215.46,129.27,188.24,532.97,Single-ply,SBD,M
Boys,124.74+,6,Kyle Weiss #1,Panhandle,128.55,183.7,127.01,172.37,483.08,Single-ply,SBD,M
Boys,124.74+,7,Henry Perez,Dumas,140.43,195.04,104.33,142.88,442.25,Single-ply,SBD,M
Boys,124.74+,8,Justin Barrera,Dalhart,127.1,183.7,83.91,151.95,419.57,Single-ply,SBD,M
