Division,WeightClassKg,Place,Name,Team,BodyweightKg,Best3SquatKg,Best3BenchKg,Best3DeadliftKg,TotalKg,Equipment,Event,Sex
Boys,51.71,1,Leo Martinez,Rio Grande City,51.17,154.22,102.06,165.56,421.84,Single-ply,SBD,M
Boys,51.71,2,Martin Alaniz,Sharyland Pioneer,50.85,102.06,56.7,165.56,324.32,Single-ply,SBD,M
Boys,51.71,DQ,Javier Farias,Mission,51.12,,,,,Single-ply,SBD,M
Boys,55.79,1,Robert Saenz,Sharyland Pioneer,55.79,201.85,131.54,210.92,544.31,Single-ply,SBD,M
Boys,55.79,2,Kevin Trevino,McAllen Memorial,55.57,154.22,113.4,183.7,451.32,Single-ply,SBD,M
Boys,55.79,3,Anthony Trevino,Rio Grande City Grulla,55.79,113.4,72.57,142.88,328.85,Single-ply,SBD,M
Boys,55.79,4,David Garza,La Joya Juarez-Lincoln,53.25,113.4,65.77,111.13,290.3,Single-ply,SBD,M
Boys,55.79,DQ,Patricio Chavez,Mission Sharyland,51.8,163.29,,,,Single-ply,SBD,M
Boys,59.87,1,Chris Rios,Rio Grande City,59.24,181.44,117.93,181.44,480.81,Single-ply,SBD,M
Boys,59.87,2,Ismael Talamante,Rio Grande City,59.74,161.03,99.79,167.83,428.64,Single-ply,SBD,M
Boys,59.87,3,Jesus Rosillo,McAllen,59.87,158.76,86.18,161.03,405.97,Single-ply,SBD,M
Boys,59.87,4,Isaac Galvan,Sharyland Pioneer,58.79,140.61,90.72,149.69,381.02,Single-ply,SBD,M
Boys,67.13,1,Ricardo Pena #1,Rio Grande City,66.5,231.33,133.81,226.8,591.94,Single-ply,SBD,M
Boys,67.13,2,Moses Olivarez,McAllen Memorial,66.41,217.72,122.47,213.19,553.38,Single-ply,SBD,M
Boys,67.13,3,Eduardo Elizondo,Rio Grande City Grulla,63.59,181.44,108.86,181.44,471.74,Single-ply,SBD,M
Boys,67.13,4,Dylan Bazarte,Mission Sharyland,65.86,172.37,99.79,195.04,467.2,Single-ply,SBD,M
Boys,67.13,5,Rolando Saenz,Mission Sharyland,66,183.7,86.18,163.29,433.18,Single-ply,SBD,M
Boys,67.13,6,Mario Marquez,Mission,63.96,161.03,88.45,174.63,424.11,Single-ply,SBD,M
Boys,67.13,7,Kameron Maples,McAllen Memorial,66.63,136.08,95.25,158.76,390.09,Single-ply,SBD,M
Boys,67.13,8,Yahir Puente,McAllen Memorial,67,131.54,83.91,151.95,367.41,Single-ply,SBD,M
Boys,67.13,9,Ruben D Saenz,McAllen Rowe,60.69,145.15,74.84,145.15,365.14,Single-ply,SBD,M
Boys,67.13,10,Abraham Salinas,Rio Grande City Grulla,66.68,127.01,92.99,136.08,356.07,Single-ply,SBD,M
Boys,67.13,11,Ricardo Llamas,Mission Veterans Memorial,62.82,120.2,79.38,142.88,342.46,Single-ply,SBD,M
Boys,67.13,DQ,Coy Burrows,Sharyland Pioneer,66.63,,,,,Single-ply,SBD,M
Boys,67.13,DQ,Carlos Gonzalez,Sharyland Pioneer,65.91,,,,,Single-ply,SBD,M
Boys,74.84,1,Jonathan Casarez,Rio Grande City,72.35,213.19,142.88,233.6,589.67,Single-ply,SBD,M
Boys,74.84,2,Emillimo Beceml,Mission Sharyland,70.13,192.78,113.4,188.24,494.42,Single-ply,SBD,M
Boys,74.84,3,Christopher Palamo,McAllen,74.03,158.76,102.06,167.83,428.64,Single-ply,SBD,M
Boys,74.84,4,Adam Alvarado,McAllen Rowe,67.81,147.42,90.72,167.83,405.97,Single-ply,SBD,M
Boys,74.84,5,Marcus Flores,McAllen,74.12,154.22,79.38,165.56,399.16,Single-ply,SBD,M
Boys,74.84,6,Jose Rodriguez #16,Mission Veterans Memorial,72.8,147.42,74.84,170.1,392.36,Single-ply,SBD,M
Boys,74.84,7,Raymond Gagne,McAllen,74.71,124.74,97.52,145.15,367.41,Single-ply,SBD,M
Boys,82.1,1,Jazaih Escamilla,McAllen Memorial,79.47,256.28,158.76,226.8,641.83,Single-ply,SBD,M
Boys,82.1,2,Franklin Arellano,McAllen,80.42,229.06,145.15,238.14,612.35,Single-ply,SBD,M
Boys,82.1,3,Robert Farias,Mission Sharyland,80.42,263.08,122.47,204.12,589.67,Single-ply,SBD,M
Boys,82.1,4,Julian Hernandez,McAllen Memorial,81.69,229.06,149.69,206.38,585.13,Single-ply,SBD,M
Boys,82.1,5,Mauricio Gonzalez,Mission,80.24,222.26,149.69,208.65,580.6,Single-ply,SBD,M
Boys,82.1,6,Edgar Castillo,McAllen Rowe,82.1,199.58,120.2,215.46,535.24,Single-ply,SBD,M
Boys,82.1,7,Miguel Rendon,Mission,80.65,199.58,108.86,210.92,519.36,Single-ply,SBD,M
Boys,82.1,8,Edgar Escoberdo,Mission,81.65,185.97,95.25,206.38,487.61,Single-ply,SBD,M
Boys,82.1,9,Marc Garcia,La Joya,82.01,183.7,102.06,179.17,464.93,Single-ply,SBD,M
Boys,82.1,10,Juan Villarreal #3,Sharyland Pioneer,81.28,142.88,92.99,149.69,385.55,Single-ply,SBD,M
Boys,82.1,DQ,Gabriel Acosta #1,Sharyland Pioneer,79.83,,,,,Single-ply,SBD,M
Boys,82.1,DQ,Roland Briseno,McAllen,80.47,185.97,124.74,,,Single-ply,SBD,M
Boys,89.81,1,Michael Morales,McAllen Rowe,84.41,204.12,124.74,195.04,523.9,Single-ply,SBD,M
Boys,89.81,2,Luis Venecia,La Joya Juarez-Lincoln,86.45,199.58,104.33,199.58,503.49,Single-ply,SBD,M
Boys,89.81,3,Aaron Gonzalez,McAllen Rowe,89.45,172.37,108.86,190.51,471.74,Single-ply,SBD,M
Boys,89.81,4,Andrew Torres,Sharyland Pioneer,86.77,181.44,129.27,154.22,464.93,Single-ply,SBD,M
Boys,89.81,5,Joao Bocanegra,Mission Veterans Memorial,85.77,127.01,74.84,147.42,349.27,Single-ply,SBD,M
Boys,89.81,DQ,Fernando Martinez #3,Mission Veterans Memorial,83.55,,,,,Single-ply,SBD,M
Boys,89.81,DQ,Obed Hernandez,Sharyland Pioneer,85.37,,,,,Single-ply,SBD,M
Boys,89.81,DQ,Quan Nguyen,Mission,89.81,192.78,97.52,,,Single-ply,SBD,M
Boys,89.81,DQ,Luis Garza,La Joya,85.59,226.8,122.47,226.8,,Single-ply,SBD,M
Boys,99.79,1,Sebastian Buitron,McAllen,99.79,278.96,147.42,249.48,675.85,Single-ply,SBD,M
Boys,99.79,2,Daniel Villarreal,La Joya,92.62,272.16,138.35,249.48,659.98,Single-ply,SBD,M
Boys,99.79,3,Eddie Hernandez,La Joya Juarez-Lincoln,97.84,249.48,158.76,235.87,644.1,Single-ply,SBD,M
Boys,99.79,4,Ayel Hernandez,McAllen Memorial,94.39,215.46,117.93,238.14,571.53,Single-ply,SBD,M
Boys,99.79,5,Eric Gutierrez,Mission,98.7,226.8,133.81,199.58,560.19,Single-ply,SBD,M
Boys,99.79,6,Erik Torres,Sharyland Pioneer,98.93,226.8,140.61,185.97,553.38,Single-ply,SBD,M
Boys,99.79,7,Justin Torres,McAllen Rowe,99.74,201.85,117.93,226.8,546.58,Single-ply,SBD,M
Boys,99.79,8,Derek Solis,Rio Grande City Grulla,94.17,192.78,127.01,215.46,535.24,Single-ply,SBD,M
Boys,99.79,9,Bryan Rosales,Mission,98.75,183.7,108.86,192.78,485.34,Single-ply,SBD,M
Boys,99.79,10,Ivan Garcia #3,Rio Grande City Grulla,98.02,154.22,90.72,163.29,408.23,Single-ply,SBD,M
Boys,99.79,DQ,Eduardo Garza,Rio Grande City,94.76,,,,,Single-ply,SBD,M
Boys,99.79,DQ,Jose Quintero,McAllen Rowe,93.12,197.31,,,,Single-ply,SBD,M
Boys,109.77,1,Juan Martinez,La Joya Juarez-Lincoln,109.63,260.82,151.95,249.48,662.24,Single-ply,SBD,M
Boys,109.77,2,Israel Monzivais,La Joya Juarez-Lincoln,109.5,222.26,117.93,222.26,562.45,Single-ply,SBD,M
Boys,109.77,3,Alejandro Franco,Mission,108.41,206.38,122.47,213.19,542.04,Single-ply,SBD,M
Boys,109.77,4,Donavan Rodriguez,Mission Veterans Memorial,102.06,197.31,106.59,183.7,487.61,Single-ply,SBD,M
Boys,124.74,1,Luis Salinas,Rio Grande City,124.01,265.35,183.7,294.84,743.89,Single-ply,SBD,M
Boys,124.74,2,Juan Rodriguez,Rio Grande City,117.62,269.89,145.15,235.87,650.91,Single-ply,SBD,M
Boys,124.74,3,Steven Alvarez,Mission,120.07,226.8,149.69,240.4,616.89,Single-ply,SBD,M
Boys,124.74,4,Osiel Alonso,La Joya Juarez-Lincoln,113.17,217.72,120.2,190.51,528.44,Single-ply,SBD,M
Boys,124.74,5,Juan Gomez,Mission Sharyland,117.12,204.12,124.74,192.78,521.63,Single-ply,SBD,M
Boys,124.74,6,Jesse Garza,McAllen Rowe,114.03,185.97,131.54,197.31,514.83,Single-ply,SBD,M
Boys,124.74,7,Steven Pedraza,McAllen,112.04,149.69,90.72,183.7,424.11,Single-ply,SBD,M
Boys,124.74,DQ,Josh Williams,Mission Sharyland,123.56,,,,,Single-ply,SBD,M
Boys,124.74,DQ,Luis Garcia #6,Rio Grande City Grulla,116.39,,,,,Single-ply,SBD,M
Boys,124.74,DQ,Juan Liscano,Sharyland Pioneer,113.35,,,,,Single-ply,SBD,M
Boys,124.74,DQ,Aalok Zimmerman,McAllen Rowe,123.29,149.69,,,,Single-ply,SBD,M
Boys,124.74,DQ,Albert Torres,McAllen Rowe,120.52,197.31,113.4,,,Single-ply,SBD,M
Boys,124.74+,1,Arturo Ochoa,McAllen,139.43,283.5,204.12,238.14,725.75,Single-ply,SBD,M
Boys,124.74+,2,Gerardo Lopez,McAllen,135.44,290.3,210.92,192.78,694,Single-ply,SBD,M
Boys,124.74+,3,Alex Rodriguez #2,La Joya,159.3,281.23,167.83,226.8,675.85,Single-ply,SBD,M
Boys,124.74+,4,Sergio Reyna,McAllen Memorial,127.19,265.35,163.29,219.99,648.64,Single-ply,SBD,M
Boys,124.74+,5,Julian Vela,Mission,131.27,242.67,147.42,235.87,625.96,Single-ply,SBD,M
Boys,124.74+,6,Jacob Mata,McAllen Rowe,150.5,195.04,147.42,170.1,512.56,Single-ply,SBD,M
Boys,124.74+,DQ,Montgomery Walter,Mission Veterans Memorial,129.41,,,,,Single-ply,SBD,M
