Division,WeightClassKg,Place,Name,Team,BodyweightKg,Best3SquatKg,Best3BenchKg,Best3DeadliftKg,TotalKg,Equipment,Event,Sex
Boys,51.71,1,Randy Trevino,Gregory-Portland,50.98,142.88,79.38,142.88,365.14,Single-ply,SBD,M
Boys,51.71,2,Pete Olivarez,Orange Grove,49.8,145.15,72.57,136.08,353.8,Single-ply,SBD,M
Boys,55.79,1,Thomas Soto,Corpus Christi Calallen,55.34,204.12,102.06,219.99,526.17,Single-ply,SBD,M
Boys,55.79,2,Daniel Porras,Orange Grove,54.16,161.03,74.84,170.1,405.97,Single-ply,SBD,M
Boys,59.87,1,Jacob de la Paz,Corpus Christi Calallen,57.33,167.83,81.65,170.1,419.57,Single-ply,SBD,M
Boys,59.87,2,Chance Mickens,Corpus Christi Calallen,58.97,142.88,83.91,158.76,385.55,Single-ply,SBD,M
Boys,59.87,3,Aaron Martinez,Corpus Christi Calallen,58.42,138.35,83.91,161.03,383.29,Single-ply,SBD,M
Boys,59.87,4,Jacob Gonzales,Gregory-Portland,57.06,136.08,58.97,154.22,349.27,Single-ply,SBD,M
Boys,59.87,5,Torres Andy,Gregory-Portland,58.33,117.93,70.31,115.67,303.91,Single-ply,SBD,M
Boys,67.13,1,Rico Rodriguez,San Diego,66.95,244.94,151.95,265.35,662.24,Single-ply,SBD,M
Boys,67.13,2,Matt Valdez,San Diego,64.86,183.7,102.06,206.38,492.15,Single-ply,SBD,M
Boys,67.13,3,John Renninger,Gregory-Portland,65.14,158.76,99.79,183.7,442.25,Single-ply,SBD,M
Boys,67.13,4,Tristan Ruiz,Corpus Christi Calallen,63.41,165.56,102.06,170.1,437.72,Single-ply,SBD,M
Boys,67.13,5,Tyler Pastrano,San Diego,65.86,158.76,102.06,156.49,417.3,Single-ply,SBD,M
Boys,67.13,6,Steven Morin,Gregory-Portland,65.95,140.61,86.18,185.97,412.77,Single-ply,SBD,M
Boys,74.84,7,Joshua Cruz,Bishop,67.31,158.76,90.72,149.69,399.16,Single-ply,SBD,M
Boys,67.13,8,David Van #2,Gregory-Portland,60.69,136.08,72.57,158.76,367.41,Single-ply,SBD,M
Boys,67.13,9,Alex Rodriguez #3,Corpus Christi Calallen,64.23,122.47,70.31,136.08,328.85,Single-ply,SBD,M
Boys,67.13,10,Jarrett Bosze,Orange Grove,64.59,106.59,74.84,147.42,328.85,Single-ply,SBD,M
Boys,67.13,11,Armondo Soliz,Orange Grove,61.96,127.01,61.23,131.54,319.78,Single-ply,SBD,M
Boys,82.1,1,Carlos Charles,Bishop,75.02,208.65,129.27,210.92,548.85,Single-ply,SBD,M
Boys,74.84,2,Jared Garcia,Corpus Christi Calallen,73.21,188.24,111.13,226.8,526.17,Single-ply,SBD,M
Boys,82.1,3,Jeremiah Keever,Bishop,74.93,199.58,102.06,204.12,505.76,Single-ply,SBD,M
Boys,74.84,4,Nathan Sanchez #3,Corpus Christi Calallen,73.84,192.78,97.52,213.19,503.49,Single-ply,SBD,M
Boys,74.84,5,Albert Salinas,Bishop,74.57,185.97,106.59,183.7,476.27,Single-ply,SBD,M
Boys,74.84,6,Bryce Kneip,Corpus Christi Calallen,71.03,181.44,99.79,190.51,471.74,Single-ply,SBD,M
Boys,74.84,7,Damian Cisneros,Gregory-Portland,70.22,185.97,97.52,181.44,464.93,Single-ply,SBD,M
Boys,74.84,8,Aaron Flores #3,Corpus Christi Calallen,73.48,156.49,104.33,170.1,430.91,Single-ply,SBD,M
Boys,74.84,9,Ryder Duff,Corpus Christi Calallen,72.39,151.95,86.18,167.83,405.97,Single-ply,SBD,M
Boys,74.84,10,John Ruth,Gregory-Portland,68.76,140.61,79.38,158.76,378.75,Single-ply,SBD,M
Boys,74.84,11,Daniel Green,Gregory-Portland,70.03,124.74,74.84,147.42,347,Single-ply,SBD,M
Boys,74.84,DQ,Daniel Rivera,Orange Grove,74.75,188.24,,,,Single-ply,SBD,M
Boys,82.1,1,Chris Hernandez,Gregory-Portland,81.19,204.12,122.47,204.12,530.7,Single-ply,SBD,M
Boys,82.1,2,Lorenzo Landin,Gregory-Portland,75.3,181.44,106.59,181.44,469.47,Single-ply,SBD,M
Boys,82.1,3,Chris Chapa,Corpus Christi Calallen,79.83,151.95,104.33,170.1,426.38,Single-ply,SBD,M
Boys,82.1,4,Ian Spencer,Gregory-Portland,78.93,136.08,65.77,136.08,337.93,Single-ply,SBD,M
Boys,99.79,1,AJ Alvarez,Bishop,89.95,294.84,183.7,265.35,743.89,Single-ply,SBD,M
Boys,99.79,2,Roy Saenz,Bishop,89.9,219.99,131.54,219.99,571.53,Single-ply,SBD,M
Boys,89.81,3,Justin Mask,Gregory-Portland,85.82,208.65,145.15,199.58,553.38,Single-ply,SBD,M
Boys,89.81,4,Jose Moreno,San Diego,87.36,145.15,79.38,167.83,392.36,Single-ply,SBD,M
Boys,89.81,5,Albert Guerrero,Gregory-Portland,86,136.08,86.18,140.61,362.87,Single-ply,SBD,M
Boys,89.81,DQ,Zachary Gonzales,Orange Grove,88.63,,,,,Single-ply,SBD,M
Boys,99.79,1,Luis Lopez #3,San Diego,98.07,317.51,183.7,278.96,780.18,Single-ply,SBD,M
Boys,99.79,2,Reno Perez,San Diego,98.16,297.1,161.03,272.16,730.28,Single-ply,SBD,M
Boys,99.79,3,Alex Tanguma,Corpus Christi Calallen,98.97,260.82,170.1,258.55,689.46,Single-ply,SBD,M
Boys,99.79,4,Bubba Everett,San Diego,98.52,197.31,102.06,165.56,464.93,Single-ply,SBD,M
Boys,99.79,5,Charles West,Gregory-Portland,90.54,170.1,90.72,181.44,442.25,Single-ply,SBD,M
Boys,109.77,1,Blade Bronstad,Corpus Christi Calallen,107.68,258.55,142.88,256.28,657.71,Single-ply,SBD,M
Boys,109.77,2,Dakota Cooksy,Corpus Christi Calallen,107.68,258.55,158.76,238.14,655.44,Single-ply,SBD,M
Boys,109.77,3,Alex Garcia #6,San Diego,100.43,272.16,154.22,226.8,653.17,Single-ply,SBD,M
Boys,124.74,4,Marc Hinojosa,Bishop,109.95,158.76,102.06,156.49,417.3,Single-ply,SBD,M
Boys,109.77,5,Derick Espinosa,San Diego,107.77,172.37,90.72,151.95,415.04,Single-ply,SBD,M
Boys,109.77,6,Travis Liberty,Corpus Christi Calallen,107.32,147.42,97.52,149.69,394.63,Single-ply,SBD,M
Boys,109.77,7,Chris Navarro,Corpus Christi Calallen,108.86,108.86,63.5,124.74,297.1,Single-ply,SBD,M
Boys,124.74,1,Zak Pizzini,San Diego,110.31,249.48,170.1,208.65,628.23,Single-ply,SBD,M
Boys,124.74,2,Dylan Duff,Corpus Christi Calallen,111.22,229.06,156.49,195.04,580.6,Single-ply,SBD,M
Boys,124.74+,3,Zach Gonzales,Bishop,124.78,260.82,136.08,183.7,580.6,Single-ply,SBD,M
Boys,124.74,4,David Silva,Corpus Christi Calallen,112.13,229.06,120.2,226.8,576.06,Single-ply,SBD,M
Boys,124.74,5,Thomas Zaragosa,Bishop,117.25,213.19,111.13,167.83,492.15,Single-ply,SBD,M
